…
details_tidy <- 
  clean_details %>%
  unnest_tokens(word, boardgamecategory) %>%
  anti_join(get_stopwords()) %>%
  filter(word != "game") %>%
  mutate(word = gsub("[[:punct:]]", "", word))



details_tidy %>%
  count(word, sort = TRUE)  
```

    ## # A tibble: 104 × 2
    ##    word          n
    ##    <chr>     <int>
    ##  1 card       6402
    ##  2 wargame    3820
    ##  3 fantasy    2681
    ##  4 war        1996
    ##  5 party      1968
    ##  6 dice       1847
    ##  7 fiction    1666
    ##  8 science    1666
    ##  9 fighting   1658
    ## 10 childrens  1635
    ## # … with 94 more rows
…
word_freqs
```

    ## # A tibble: 400 × 5
    ##    word     total_cuts     n total proportion
    ##    <chr>         <dbl> <int> <int>      <dbl>
    ##  1 abstract        150   564 16166    0.0349 
    ##  2 abstract        500   524 26783    0.0196 
    ##  3 abstract       1000   171 11249    0.0152 
    ##  4 abstract     200000   286 18694    0.0153 
    ##  5 action          150   394 16166    0.0244 
    ##  6 action          500   369 26783    0.0138 
    ##  7 action         1000   163 11249    0.0145 
    ##  8 action       200000   164 18694    0.00877
    ##  9 adult           150    39 16166    0.00241
    ## 10 adult           500    60 26783    0.00224
    ## # … with 390 more rows
…
word_mods 
```

    ## # A tibble: 100 × 7
    ##    word          data             term         estimate std.e…¹ stati…²  p.value
    ##    <chr>         <list>           <chr>           <dbl>   <dbl>   <dbl>    <dbl>
    ##  1 city          <tibble [4 × 4]> total_cuts 0.00000538 4.38e-7   12.3  1.35e-32
    ##  2 renaissance   <tibble [4 × 4]> total_cuts 0.00000488 6.19e-7    7.89 2.70e-13
    ##  3 civilization  <tibble [4 × 4]> total_cuts 0.00000479 5.41e-7    8.86 7.56e-17
    ##  4 building      <tibble [4 × 4]> total_cuts 0.00000461 3.16e-7   14.6  3.44e-46
    ##  5 farming       <tibble [4 × 4]> total_cuts 0.00000441 6.51e-7    6.78 9.65e-10
    ##  6 industry      <tibble [4 × 4]> total_cuts 0.00000421 5.89e-7    7.15 7.03e-11
    ##  7 manufacturing <tibble [4 × 4]> total_cuts 0.00000421 5.89e-7    7.15 7.03e-11
    ##  8 territory     <tibble [4 × 4]> total_cuts 0.00000379 4.54e-7    8.35 6.32e-15
    ##  9 environmental <tibble [4 × 4]> total_cuts 0.00000324 7.37e-7    4.39 6.40e- 4
    ## 10 exploration   <tibble [4 × 4]> total_cuts 0.00000321 3.00e-7   10.7  9.76e-25
    ## # … with 90 more rows, and abbreviated variable names ¹​std.error, ²​statistic
…
description_tidy %>%
  count(word, sort = TRUE)  
```

    ## # A tibble: 69,400 × 2
    ##    word        n
    ##    <chr>   <int>
    ##  1 players 34960
    ##  2 player  30307
    ##  3 cards   29419
    ##  4 quot    25456
    ##  5 one     23356
    ##  6 can     20062
    ##  7 card    19199
    ##  8 play    13122
    ##  9 two     11239
    ## 10 points  11180
    ## # … with 69,390 more rows
…
description_word_freqs
```

    ## # A tibble: 400 × 5
    ##    word    total_cuts     n  total proportion
    ##    <chr>        <dbl> <int>  <int>      <dbl>
    ##  1 action         150   824 477556    0.00173
    ##  2 action         500  1242 816139    0.00152
    ##  3 action        1000   700 384265    0.00182
    ##  4 action      200000  1384 650587    0.00213
    ##  5 actions        150   516 477556    0.00108
    ##  6 actions        500   911 816139    0.00112
    ##  7 actions       1000   557 384265    0.00145
    ##  8 actions     200000  1348 650587    0.00207
    ##  9 also           150  1389 477556    0.00291
    ## 10 also           500  2254 816139    0.00276
    ## # … with 390 more rows
…
description_word_mods 
```

    ## # A tibble: 100 × 7
    ##    word     data             term         estimate   std.error stati…¹   p.value
    ##    <chr>    <list>           <chr>           <dbl>       <dbl>   <dbl>     <dbl>
    ##  1 building <tibble [4 × 4]> total_cuts 0.00000369 0.000000187   19.7  8.46e- 85
    ##  2 city     <tibble [4 × 4]> total_cuts 0.00000307 0.000000179   17.2  3.53e- 64
    ##  3 actions  <tibble [4 × 4]> total_cuts 0.00000281 0.000000177   15.9  7.00e- 55
    ##  4 build    <tibble [4 × 4]> total_cuts 0.00000258 0.000000178   14.5  6.17e- 46
    ##  5 new      <tibble [4 × 4]> total_cuts 0.00000248 0.000000109   22.8  5.58e-113
    ##  6 unique   <tibble [4 × 4]> total_cuts 0.00000202 0.000000198   10.2  1.17e- 22
    ##  7 deck     <tibble [4 × 4]> total_cuts 0.00000167 0.000000146   11.5  2.00e- 28
    ##  8 power    <tibble [4 × 4]> total_cuts 0.00000156 0.000000198    7.87 2.96e- 13
    ##  9 ndash    <tibble [4 × 4]> total_cuts 0.00000138 0.000000181    7.61 2.19e- 12
    ## 10 tiles    <tibble [4 × 4]> total_cuts 0.00000130 0.000000163    7.97 1.36e- 13
    ## # … with 90 more rows, and abbreviated variable name ¹​statistic
…
